account_number,name,start_rating,end_rating,amount
1215450450,Vusa,AA,A2,10000
1215450450,Vusa,A1,A2,10000
1215450450,Vusa,AA,A2,10000
1215450450,Vusa,B1,B4,10000
1215450450,Vusa,B1,B1,10000
1215450450,Vusa,AA,A2,10000
1215450450,Vusa,A2,A2,10000
