name,account_number,start_rating,end_rating,amount
TSOMBA ARTWELL MR,5.07E+11,D,D,920.14
TWIN CON INDUSTRIAL SUPPLIERS PL,1.07E+11,C,D,36.48
VISION-WISE MARKETING PVT LTD,3.07E+11,C,D,156.49
WHARIVA RATIDZAI MS,1.07E+11,C,D,33.7
WINEFREDS STATIONERY,3.07E+11,C,D,450
WISEDALE MARKETING PVT LTD,3.07E+11,C,D,144
ZENGENENE ITAI MR ,1.41E+12,C,D,43.48
ZIRENGA VIMBAI LOVENESS MS,1.07E+11,C,D,34.53
ZUZE OLIVER MR,1.07E+11,C,D,46.97
ZUZE TICHAONA MR,3.07E+11,C,D,25.96
ZVENYIKA THOMAS RHUMSON MR,1.81E+12,C,D,1
PHIRI BASILIA MS,1.91E+12,C,C,1170
PREMIER TOBACCO AUCTION FLOORS,1.07E+11,C,C,991.95
PREMIER TOBACCO AUCTION FLOORS,1.07E+11,C,C,15.12
PREMIER TOBACCO AUCTION FLRS-OPS,1.07E+11,C,C,15.12
QUATEC INVESTMENT,1.11E+12,AA,C,550
RUKARA LAIZAH,8.07E+11,AA,C,0.78
SENGU DAVID MR,1.41E+12,AA,C,43.48
SIBANDA CHAMUNORWA,1.41E+12,AA,C,43.48
SIMANGO JOSHUA MR,2.11E+12,AA,C,43.48
TAFAMBA   ALFRED MR,2.11E+12,AA,C,43.48
TSAURAI TAURAI MR,2.11E+12,AA,C,10.14
TURKMINE PRIMARY SCHOOL,3.07E+11,AA,C,11.28
ZHOU FAITH RUTENDO MISS,1.41E+12,AA,C,45.65
ZIZHOU ALPHA MRS,2.11E+12,AA,C,40.71
ZIVENGWA SHINGIRAI MS,1.71E+12,AA,AA,1570.48
ZIZHOU ANNIE MUGOVE,1.71E+12,AA,AA,36.03
ZOMBE SAM ZVIDZAYI MR,3.07E+11,AA,AA,0.35
ZONDO NTOMBIZODWA,2.01E+12,AA,AA,44.52
ZONDO NUTT MR,2.01E+12,AA,AA,377.61
ZORODZAI MUTSIKWA,3.31E+12,AA,AA,389.5
ZULU MKHULULI MR,3.21E+12,AA,AA,107.53
ZUZE COLLEN MR,2.11E+12,AA,AA,3.04
ZVAVAMWE SYLVESTER,1.71E+12,B1,AA,118.88
ZVENHAMO MORDFY,1.71E+12,B1,AA,33.45
ZVENYIKA CHIDYAUSIK,1.07E+11,B1,AA,857.46
ZVENYIKA MICHAEL,1.71E+12,B1,AA,25.91
ZVIDZAI JULIAN MS,1.31E+12,B1,AA,62.4
ZVINAVASHE SYLYANOUS MR,3.07E+11,B1,AA,1.64
ZVINEI CHIMUSO,1.11E+12,B1,AA,188.23
ZVIRAHWA JOYCE MS,1.11E+12,B1,AA,644.65
ZVOUSHE CHARLES TENDAI,1.71E+12,B1,AA,463.23
ZWIMBA GRAM MR ,1.01E+12,B1,AA,21.55
ZINZWEKU SAMUEL,9.07E+11,B1,B1,19.69
ZUNIDZA KOMORERA,1.11E+12,B1,B1,592.06
BVUTE OZIAS,1.07E+11,B1,B1,5.76
CHIPADZA LEONARD MR,1.07E+11,B1,B1,709.86
CHITSARI CHARLES MR,1.11E+12,B1,B1,866.96
CITY OF HARARE,1.07E+11,B1,B1,0
GAJA   STANLEY MR,2.11E+12,B1,B1,30.69
GASURA GIVEMORE MR,1.07E+11,B1,B1,570.95
GONYE DOROTHY MS,2.11E+12,B1,B1,709.96
LOBELS BREAD,1.07E+11,B1,B1,8
MACHAMACHA CHRISTWISH,2.11E+12,B1,B1,218.34
MAMVURA FRANCIS MR,1.07E+11,B1,B1,47.88
MAPIRA ANDY MR,1.11E+12,B1,B1,2148.3
MATOWANYIKA JAMES TORINGA MR,1.11E+12,B1,B1,52.66
MUKARWI EDSON MR,2.11E+12,B1,B1,141.89
MUKONDIWA WILFRED-RUNYARARO FARM,1.07E+11,B2,B1,46835.65
MUTEMA MOLINE MISS,2.11E+12,B2,B1,632.06
NDUNA RALLION CHIAMBIRO MR,2.11E+12,B2,B1,1161.1
NYIRENDA SHACKY MR,1.07E+11,B2,B1,1774.53
ROBERTSON  MOTORS  (PVT)  LTD,1.07E+11,B2,B1,0
SITHOLE BUZILE MR,2.11E+12,B2,B1,339.25
TSIKISAYI STANLEY MR,1.07E+11,B3,B1,524.15
ZIMBABWE CRICKET,1.07E+11,B3,B1,7158975.81
SQUAREDEC INVESTMENTS PVT LTD,1.61E+12,B3,B1,11.5
ZIMBABWE CRICKET - OB VAN,1.07E+11,B3,B1,355966.08
DARANGWA EVANS MR,1.11E+12,B3,B2,94.61
NYAMURANGA PERPETUA MISS,1.11E+12,B3,B2,840.45
NYAMBI HEBERT,1.11E+12,B3,B2,0
POUND GWINYAI MR,1.11E+12,B3,B2,1099.27
SIBANDA CLIFORD MR,1.11E+12,B3,B2,943
SITIMA TAKUNDA MR,1.11E+12,B3,B2,371.5
GARWI FORTUATE FARAI MISS,1.11E+12,B3,B3,210.31
GOORA PRUDENCE,1.11E+12,B3,B3,0
GOWERE ABIGIRL MRS,1.11E+12,B3,B3,647.47
LISUTU LASTON MR,1.11E+12,B3,B3,1061.73
MANGENA PATRICK MR,1.11E+12,B3,B3,523.52
MANJEYA ROMMY MR,1.11E+12,B3,B3,220.08
MPOFU CLIFFORD MR,1.11E+12,B3,B3,228.35
MUDAPANDU HEBERT MR,1.11E+12,B3,B3,1018.74
MUDONDO PROGRESS MR,1.11E+12,B4,B3,67.19
MUKARONDA ROSE MISS,1.11E+12,B4,B3,687.72
MUKAI HIGH SCHOOL,7.06E+11,B2,B3,106.04
MUSONZA CLARA MS,1.11E+12,B2,B3,389.02
MUWESA TAPUWA MAKUTO,1.41E+12,B2,B3,5.07
ST MARYS HIGH SCHOOL SDC,1.31E+12,B3,B3,0
WELLMADE ENTERPRISE T/A CRIC SHOP,1.07E+11,B3,B3,0
FLOWERMET FARMING PVT LTD,1.07E+11,B3,B3,9.1
KUNAKA ALICE MRS,7.07E+11,B3,B3,1.23
MASHOKO KINGSTON MR,7.07E+11,B3,B3,33.54
DENGU GODFREY TA HIGHNOTE BOTTLE,1.07E+11,B3,B4,1619.55
KAKOMO JOSEPH,1.51E+12,B3,B4,43.66
